End-to-End Submissions in R with the Pharmaverse – Tables in R using {tfrmt}
…
  F
    xx (xx.x%)
    xx (xx.x%)

  M
    xx (xx.x%)
    xx (xx.x%)

1 Pooled High and Low Dose

Ensure placement of all values (Main)

print(ard_demog)

# A tibble: 24 × 7
   ARM2    stat_variable stat_name   stat label     ord1  ord2
   <chr>   <chr>         <chr>      <dbl> <chr>    <dbl> <dbl>
 1 Placebo Age (years)   median    76     Median       1    NA
 2 Placebo Age (years)   p25       69     [Q1, Q3]     1    NA
 3 Placebo Age (years)   p75       82     [Q1, Q3]     1    NA
 4 Placebo Age Group     n         72     >64          2     2
 5 Placebo Age Group     p          0.837 >64          2     2
 6 Placebo Age Group     n         14     18-64        2     1
 7 Placebo Age Group     p          0.163 18-64        2     1
 8 Placebo Sex           n         53     F            3    NA
 9 Placebo Sex           p          0.616 F            3    NA
10 Placebo Sex           n         33     M            3    NA
# ℹ 14 more rows
…
ℹ 18 more rows

ℹ Use `print(n = ...)` to see more rows

ℹ 4 more variables: context, fmt_fun, warning, error

Goal data (tfrmt input)

# A tibble: 24 × 7
   ARM2    stat_variable stat_name   stat label     ord1  ord2
   <chr>   <chr>         <chr>      <dbl> <chr>    <dbl> <dbl>
 1 Placebo Age (years)   median    76     Median       1    NA
 2 Placebo Age (years)   p25       69     [Q1, Q3]     1    NA
 3 Placebo Age (years)   p75       82     [Q1, Q3]     1    NA
 4 Placebo Age Group     n         72     >64          2     2
 5 Placebo Age Group     p          0.837 >64          2     2
 6 Placebo Age Group     n         14     18-64        2     1
 7 Placebo Age Group     p          0.163 18-64        2     1
 8 Placebo Sex           n         53     F            3    NA
 9 Placebo Sex           p          0.616 F            3    NA
10 Placebo Sex           n         33     M            3    NA
# ℹ 14 more rows

cards to tfrmt

First, let’s “shuffle” the results into a tidy data frame:

ard_demog_00 |> 
  tfrmt::shuffle_card(fill_overall = "Overall") 

# A tibble: 28 × 9
   ARM2    AGE    AGEGR1 SEX   context stat_variable stat_name stat_label   stat
   <chr>   <chr>  <chr>  <chr> <chr>   <chr>         <chr>     <chr>       <dbl>
 1 Placebo Overa… <NA>   <NA>  summary AGE           median    Median     76    
 2 Placebo Overa… <NA>   <NA>  summary AGE           p25       Q1         69    
 3 Placebo Overa… <NA>   <NA>  summary AGE           p75       Q3         82    
 4 Placebo <NA>   >64    <NA>  catego… AGEGR1        n         n          72    
 5 Placebo <NA>   >64    <NA>  catego… AGEGR1        p         %           0.837
 6 Placebo <NA>   18-64  <NA>  catego… AGEGR1        n         n          14    
 7 Placebo <NA>   18-64  <NA>  catego… AGEGR1        p         %           0.163
 8 Placebo <NA>   <NA>   F     catego… SEX           n         n          53    
 9 Placebo <NA>   <NA>   F     catego… SEX           p         %           0.616
10 Placebo <NA>   <NA>   M     catego… SEX           n         n          33    
# ℹ 18 more rows
…
Notice that our variables have been spread wide and are no longer named group1, group1_level, etc.

But we want to get all of our row variables (AGE, AGEGR1, SEX) into a single, stacked column

cards to tfrmt

We want to get all of our row variables (AGE, AGEGR1, SEX) into a single, stacked column

We can collapse them into a single column named variable_level

ard_demog_00 |> 
  tfrmt::shuffle_card(fill_overall = "Overall") |> 
  tfrmt::prep_combine_vars(c("AGE","AGEGR1","SEX"))

# A tibble: 28 × 7
   ARM2    variable_level context     stat_variable stat_name stat_label   stat
   <chr>   <chr>          <chr>       <chr>         <chr>     <chr>       <dbl>
 1 Placebo Overall        summary     AGE           median    Median     76    
 2 Placebo Overall        summary     AGE           p25       Q1         69    
 3 Placebo Overall        summary     AGE           p75       Q3         82    
 4 Placebo >64            categorical AGEGR1        n         n          72    
 5 Placebo >64            categorical AGEGR1        p         %           0.837
 6 Placebo 18-64          categorical AGEGR1        n         n          14    
 7 Placebo 18-64          categorical AGEGR1        p         %           0.163
 8 Placebo F              categorical SEX           n         n          53    
 9 Placebo F              categorical SEX           p         %           0.616
10 Placebo M              categorical SEX           n         n          33    
# ℹ 18 more rows
…
1 Pooled High and Low Dose

Notice the row labels in the mock. It’s a combination of variable_level and stat_label for categorical and continuous variables, respectively

cards to tfrmt

Next, we create a row label (“label” column) for the table that is either the category (i.e. variable_level) for categorical variables, or the stat name for continuous variables.

ard_demog_00 |> 
  tfrmt::shuffle_card(fill_overall = "Overall") |> 
  tfrmt::prep_combine_vars(c("AGE","AGEGR1","SEX")) |> 
  tfrmt::prep_label()

# A tibble: 28 × 8
   ARM2   variable_level context stat_variable stat_name stat_label   stat label
   <chr>  <chr>          <chr>   <chr>         <chr>     <chr>       <dbl> <chr>
 1 Place… Overall        summary AGE           median    Median     76     Medi…
 2 Place… Overall        summary AGE           p25       Q1         69     Q1   
 3 Place… Overall        summary AGE           p75       Q3         82     Q3   
 4 Place… >64            catego… AGEGR1        n         n          72     >64  
 5 Place… >64            catego… AGEGR1        p         %           0.837 >64  
 6 Place… 18-64          catego… AGEGR1        n         n          14     18-64
 7 Place… 18-64          catego… AGEGR1        p         %           0.163 18-64
 8 Place… F              catego… SEX           n         n          53     F    
 9 Place… F              catego… SEX           p         %           0.616 F    
10 Place… M              catego… SEX           n         n          33     M    
# ℹ 18 more rows
…
